<?xml version="1.0" encoding="UTF-8" standalone="no"?>
<!-- Created with Inkscape (http://www.inkscape.org/) -->

<svg
   xmlns:dc="http://purl.org/dc/elements/1.1/"
   xmlns:cc="http://creativecommons.org/ns#"
   xmlns:rdf="http://www.w3.org/1999/02/22-rdf-syntax-ns#"
   xmlns:svg="http://www.w3.org/2000/svg"
   xmlns="http://www.w3.org/2000/svg"
   xmlns:xlink="http://www.w3.org/1999/xlink"
   xmlns:sodipodi="http://sodipodi.sourceforge.net/DTD/sodipodi-0.dtd"
   xmlns:inkscape="http://www.inkscape.org/namespaces/inkscape"
   width="80"
   height="16"
   id="svg4428"
   version="1.1"
   inkscape:version="0.92.1 r15371"
   sodipodi:docname="minimize.svg">
  <defs
     id="defs4430">
    <linearGradient
       id="linearGradient3868">
      <stop
         style="stop-color:#5a5a5a;stop-opacity:1;"
         offset="0"
         id="stop3870" />
      <stop
         style="stop-color:#646464;stop-opacity:1;"
         offset="1"
         id="stop3872" />
    </linearGradient>
    <linearGradient
       id="linearGradient3813">
      <stop
         style="stop-color:#666666;stop-opacity:1;"
         offset="0"
         id="stop3815" />
      <stop
         style="stop-color:#636363;stop-opacity:1;"
         offset="1"
         id="stop3817" />
    </linearGradient>
    <linearGradient
       id="linearGradient3787">
      <stop
         style="stop-color:#e5e5df;stop-opacity:1;"
         offset="0"
         id="stop3789" />
      <stop
         style="stop-color:#dadad4;stop-opacity:1;"
         offset="1"
         id="stop3791" />
    </linearGradient>
    <linearGradient
       id="linearGradient3806-3-5-6">
      <stop
         style="stop-color:#303030;stop-opacity:1;"
         offset="0"
         id="stop3808-6-9-1" />
      <stop
         style="stop-color:#232323;stop-opacity:1;"
         offset="1"
         id="stop3810-4-6-3" />
    </linearGradient>
    <linearGradient
       inkscape:collect="always"
       xlink:href="#linearGradient3787"
       id="linearGradient3793"
       x1="40"
       y1="1044.3622"
       x2="40"
       y2="1032.3622"
       gradientUnits="userSpaceOnUse" />
    <linearGradient
       inkscape:collect="always"
       xlink:href="#linearGradient3787"
       id="linearGradient3828"
       gradientUnits="userSpaceOnUse"
       x1="40"
       y1="1044.3622"
       x2="40"
       y2="1032.3622"
       gradientTransform="matrix(1.1666666,0,0,1.0769231,-6.5,-80.335554)" />
    <linearGradient
       inkscape:collect="always"
       xlink:href="#linearGradient3787-8"
       id="linearGradient3835"
       gradientUnits="userSpaceOnUse"
       gradientTransform="matrix(1.1666666,0,0,1.0769231,-35.5,-1105.6978)"
       x1="40"
       y1="1044.3622"
       x2="40"
       y2="1032.3622" />
    <linearGradient
       inkscape:collect="always"
       xlink:href="#linearGradient3787-8"
       id="linearGradient3835-4"
       gradientUnits="userSpaceOnUse"
       gradientTransform="matrix(1.1666666,0,0,1.0769231,-35.5,-1105.6978)"
       x1="40"
       y1="1044.3622"
       x2="40"
       y2="1032.3622" />
    <linearGradient
       id="linearGradient3787-8">
      <stop
         style="stop-color:#f5f5ee;stop-opacity:1;"
         offset="0"
         id="stop3789-2" />
      <stop
         style="stop-color:#e6e6df;stop-opacity:1;"
         offset="1"
         id="stop3791-6" />
    </linearGradient>
    <linearGradient
       inkscape:collect="always"
       xlink:href="#linearGradient3787-8"
       id="linearGradient3835-3"
       gradientUnits="userSpaceOnUse"
       gradientTransform="matrix(1.1666666,0,0,1.0769231,-35.5,-1105.6978)"
       x1="40"
       y1="1044.3622"
       x2="40"
       y2="1032.3622" />
    <linearGradient
       id="linearGradient3787-7">
      <stop
         style="stop-color:#f5f5ee;stop-opacity:1;"
         offset="0"
         id="stop3789-3" />
      <stop
         style="stop-color:#e6e6e0;stop-opacity:1;"
         offset="1"
         id="stop3791-3" />
    </linearGradient>
    <linearGradient
       inkscape:collect="always"
       xlink:href="#linearGradient3787"
       id="linearGradient3807"
       x1="11"
       y1="15.75"
       x2="11"
       y2="8.25"
       gradientUnits="userSpaceOnUse" />
    <linearGradient
       inkscape:collect="always"
       xlink:href="#linearGradient3813"
       id="linearGradient3819"
       x1="29.5"
       y1="15.2"
       x2="29.5"
       y2="8.8000002"
       gradientUnits="userSpaceOnUse" />
    <linearGradient
       inkscape:collect="always"
       xlink:href="#linearGradient4231"
       id="linearGradient3807-1"
       x1="10"
       y1="7.0000038"
       x2="10"
       y2="15.888954"
       gradientUnits="userSpaceOnUse" />
    <linearGradient
       id="linearGradient4231">
      <stop
         id="stop4233"
         offset="0"
         style="stop-color:#e7e7e1;stop-opacity:1;" />
      <stop
         id="stop4239"
         offset="1"
         style="stop-color:#dadad3;stop-opacity:1;" />
    </linearGradient>
    <linearGradient
       inkscape:collect="always"
       xlink:href="#linearGradient4231-1"
       id="linearGradient3807-1-1"
       x1="10"
       y1="15.888976"
       x2="10"
       y2="7.0000262"
       gradientUnits="userSpaceOnUse" />
    <linearGradient
       id="linearGradient4231-1">
      <stop
         id="stop4233-6"
         offset="0"
         style="stop-color:#e5e5de;stop-opacity:1;" />
      <stop
         id="stop4239-7"
         offset="1"
         style="stop-color:#dadad3;stop-opacity:1;" />
    </linearGradient>
    <linearGradient
       id="linearGradient4363">
      <stop
         style="stop-color:#979791;stop-opacity:1;"
         offset="0"
         id="stop4365" />
      <stop
         style="stop-color:#dadad4;stop-opacity:0;"
         offset="1"
         id="stop4367" />
    </linearGradient>
    <linearGradient
       id="linearGradient4363-7">
      <stop
         style="stop-color:#f5f5ef;stop-opacity:1;"
         offset="0"
         id="stop4365-9" />
      <stop
         style="stop-color:#dadad4;stop-opacity:0;"
         offset="1"
         id="stop4367-8" />
    </linearGradient>
    <linearGradient
       inkscape:collect="always"
       xlink:href="#linearGradient4231-7"
       id="linearGradient4361"
       gradientUnits="userSpaceOnUse"
       gradientTransform="matrix(1.1875,0,0,1,-41.25,0)"
       x1="248.63158"
       y1="79"
       x2="248.63158"
       y2="58" />
    <linearGradient
       id="linearGradient4231-7">
      <stop
         id="stop4233-4"
         offset="0"
         style="stop-color:#e6e6df;stop-opacity:1;" />
      <stop
         id="stop4239-8"
         offset="1"
         style="stop-color:#d1d1ca;stop-opacity:1;" />
    </linearGradient>
    <linearGradient
       inkscape:collect="always"
       xlink:href="#linearGradient4231-7"
       id="linearGradient3127"
       gradientUnits="userSpaceOnUse"
       gradientTransform="matrix(1.1875,0,0,1,-262.25,-55.99998)"
       x1="248.63158"
       y1="79"
       x2="248.63158"
       y2="58" />
    <linearGradient
       inkscape:collect="always"
       xlink:href="#linearGradient4231-7"
       id="linearGradient3154"
       gradientUnits="userSpaceOnUse"
       gradientTransform="matrix(1.1875,0,0,1,-262.25,-55.99998)"
       x1="248.63158"
       y1="79"
       x2="248.63158"
       y2="58" />
    <linearGradient
       inkscape:collect="always"
       xlink:href="#linearGradient4231-7"
       id="linearGradient3159"
       gradientUnits="userSpaceOnUse"
       gradientTransform="matrix(1.1875,0,0,1,-249.25,-54.99998)"
       x1="248.63158"
       y1="79"
       x2="248.63158"
       y2="58" />
    <linearGradient
       inkscape:collect="always"
       xlink:href="#linearGradient4231-7-9"
       id="linearGradient3159-0"
       gradientUnits="userSpaceOnUse"
       gradientTransform="matrix(1.1875,0,0,1,-262.25,-55.99998)"
       x1="248.63158"
       y1="79"
       x2="248.63158"
       y2="58" />
    <linearGradient
       id="linearGradient4231-7-9">
      <stop
         id="stop4233-4-2"
         offset="0"
         style="stop-color:#e6e6df;stop-opacity:1;" />
      <stop
         id="stop4239-8-9"
         offset="1"
         style="stop-color:#d1d1ca;stop-opacity:1;" />
    </linearGradient>
    <linearGradient
       id="linearGradient4231-5">
      <stop
         id="stop4233-41"
         offset="0"
         style="stop-color:#e5e5de;stop-opacity:1;" />
      <stop
         id="stop4239-73"
         offset="1"
         style="stop-color:#dadad3;stop-opacity:1;" />
    </linearGradient>
    <linearGradient
       inkscape:collect="always"
       xlink:href="#linearGradient4231-7-7"
       id="linearGradient3159-1"
       gradientUnits="userSpaceOnUse"
       gradientTransform="matrix(1.1875,0,0,1,-262.25,-55.99998)"
       x1="248.63158"
       y1="79"
       x2="248.63158"
       y2="58" />
    <linearGradient
       id="linearGradient4231-7-7">
      <stop
         id="stop4233-4-7"
         offset="0"
         style="stop-color:#e6e6df;stop-opacity:1;" />
      <stop
         id="stop4239-8-2"
         offset="1"
         style="stop-color:#d1d1ca;stop-opacity:1;" />
    </linearGradient>
    <linearGradient
       inkscape:collect="always"
       xlink:href="#linearGradient4231-73"
       id="linearGradient3807-1-7"
       x1="10"
       y1="15.888976"
       x2="10"
       y2="7.0000262"
       gradientUnits="userSpaceOnUse" />
    <linearGradient
       id="linearGradient4231-73">
      <stop
         id="stop4233-1"
         offset="0"
         style="stop-color:#e5e5de;stop-opacity:1;" />
      <stop
         id="stop4239-85"
         offset="1"
         style="stop-color:#dadad3;stop-opacity:1;" />
    </linearGradient>
  </defs>
  <sodipodi:namedview
     id="base"
     pagecolor="#eff0f1"
     bordercolor="#666666"
     borderopacity="1.0"
     inkscape:pageopacity="0"
     inkscape:pageshadow="2"
     inkscape:zoom="24.3"
     inkscape:cx="57.869078"
     inkscape:cy="9.6099308"
     inkscape:document-units="px"
     inkscape:current-layer="layer1"
     showgrid="true"
     inkscape:snap-bbox="true"
     inkscape:window-width="1920"
     inkscape:window-height="978"
     inkscape:window-x="0"
     inkscape:window-y="0"
     inkscape:window-maximized="1"
     showborder="true"
     inkscape:showpageshadow="false"
     inkscape:pagecheckerboard="true"
     showguides="true"
     inkscape:guide-bbox="true">
    <inkscape:grid
       type="xygrid"
       id="grid4436"
       empspacing="5"
       visible="true"
       enabled="true"
       snapvisiblegridlinesonly="true"
       originx="0"
       originy="0"
       spacingx="1.0666667"
       spacingy="1.0666667" />
    <sodipodi:guide
       position="9.6000003,14.933334"
       orientation="0,1"
       id="guide5357"
       inkscape:locked="false" />
    <sodipodi:guide
       position="12.8,1.0666667"
       orientation="0,1"
       id="guide5359"
       inkscape:locked="false" />
    <sodipodi:guide
       position="16,16.000001"
       orientation="1,0"
       id="guide5361"
       inkscape:locked="false" />
    <sodipodi:guide
       position="32.000001,19.200001"
       orientation="1,0"
       id="guide5363"
       inkscape:locked="false" />
    <sodipodi:guide
       position="48.000002,11.733334"
       orientation="1,0"
       id="guide5369"
       inkscape:locked="false" />
    <sodipodi:guide
       position="64.000002,14.933334"
       orientation="1,0"
       id="guide5371"
       inkscape:locked="false" />
    <sodipodi:guide
       position="80.000002,10.666667"
       orientation="1,0"
       id="guide5400"
       inkscape:locked="false" />
  </sodipodi:namedview>
  <metadata
     id="metadata4433">
    <rdf:RDF>
      <cc:Work
         rdf:about="">
        <dc:format>image/svg+xml</dc:format>
        <dc:type
           rdf:resource="http://purl.org/dc/dcmitype/StillImage" />
        <dc:title />
      </cc:Work>
    </rdf:RDF>
  </metadata>
  <g
     inkscape:label="Layer 1"
     inkscape:groupmode="layer"
     id="layer1"
     transform="translate(0,-1106.5197)">
    <g
       id="4"
       inkscape:label="#g3842"
       transform="translate(86.4,-3.2)" />
    <g
       id="4-1"
       inkscape:label="#g3842"
       transform="translate(86.4,-3.2000479)" />
    <g
       id="active-center">
      <rect
         y="1106.6184"
         x="0.098765433"
         height="15.802469"
         width="15.802468"
         id="rect4584"
         style="opacity:0;fill:#a8bb15;fill-opacity:1;stroke:#000000;stroke-width:0.19753087;stroke-miterlimit:4;stroke-dasharray:none;stroke-opacity:0.19607843" />
      <path
         inkscape:connector-curvature="0"
         d="m 7.9999963,1121.5197 c 3.8659947,0 7.0000037,-3.134 7.0000037,-7 0,-3.8659 -3.134009,-6.9999 -7.0000037,-6.9999 -3.865978,0 -6.9999963,3.134 -6.9999963,6.9999 0,3.866 3.1340183,7 6.9999963,7"
         style="fill:#dfa023;fill-opacity:1;fill-rule:evenodd;stroke:none;stroke-width:0.01637696"
         id="path14-93" />
      <path
         inkscape:connector-curvature="0"
         d="m 8.0000305,1120.5197 c 3.3137045,0 5.9999705,-2.6864 5.9999705,-6.0001 0,-3.3136 -2.686266,-5.9999 -5.9999705,-5.9999 C 4.6863423,1108.5197 2,1111.206 2,1114.5196 c 0,3.3137 2.6863423,6.0001 6.0000305,6.0001"
         style="fill:#febd2e;fill-opacity:1;fill-rule:evenodd;stroke:none;stroke-width:0.01534233"
         id="path16-1" />
    </g>
    <g
       id="4-8"
       inkscape:label="#g3842"
       transform="translate(102.4,-3.2000479)" />
    <g
       id="hover-center">
      <rect
         y="1106.6184"
         x="16.098766"
         height="15.802469"
         width="15.802468"
         id="rect4584-3"
         style="opacity:0;fill:#a8bb15;fill-opacity:1;stroke:#000000;stroke-width:0.19753087;stroke-miterlimit:4;stroke-dasharray:none;stroke-opacity:0.19607843" />
      <path
         inkscape:connector-curvature="0"
         d="m 23.999996,1121.5197 c 3.865994,0 7.000004,-3.134 7.000004,-7 0,-3.8659 -3.13401,-6.9999 -7.000004,-6.9999 -3.865978,0 -6.999996,3.134 -6.999996,6.9999 0,3.866 3.134018,7 6.999996,7"
         style="fill:#dfa023;fill-opacity:1;fill-rule:evenodd;stroke:none;stroke-width:0.01637696"
         id="path14-8" />
      <path
         inkscape:connector-curvature="0"
         d="m 24.000031,1120.5197 c 3.313704,0 5.999969,-2.6864 5.999969,-6.0001 0,-3.3136 -2.686265,-5.9999 -5.999969,-5.9999 -3.313688,0 -6.000031,2.6863 -6.000031,5.9999 0,3.3137 2.686343,6.0001 6.000031,6.0001"
         style="fill:#febd2e;fill-opacity:1;fill-rule:evenodd;stroke:none;stroke-width:0.01534233"
         id="path16-8" />
      <circle
         r="2.6666667"
         cy="1114.5197"
         cx="24"
         id="path4549"
         style="opacity:1;fill:#a16115;fill-opacity:1;stroke:#000000;stroke-width:0.2;stroke-miterlimit:4;stroke-dasharray:none;stroke-opacity:0.19607843" />
    </g>
    <g
       id="4-11"
       inkscape:label="#g3842"
       transform="translate(118.4,-3.2000118)" />
    <g
       id="pressed-center">
      <rect
         y="1106.6184"
         x="32.098766"
         height="15.802469"
         width="15.802468"
         id="rect4584-6"
         style="opacity:0;fill:#a8bb15;fill-opacity:1;stroke:#000000;stroke-width:0.19753087;stroke-miterlimit:4;stroke-dasharray:none;stroke-opacity:0.19607843" />
      <path
         inkscape:connector-curvature="0"
         d="m 39.999994,1122.5197 c 4.418279,0 8.000004,-3.5817 8.000004,-8.0001 0,-4.4181 -3.581725,-7.9999 -8.000004,-7.9999 -4.418259,0 -7.999994,3.5818 -7.999994,7.9999 0,4.4184 3.581735,8.0001 7.999994,8.0001"
         style="fill:#dfa023;fill-opacity:1;fill-rule:evenodd;stroke:none;stroke-width:0.01871652"
         id="path14-97" />
      <path
         inkscape:connector-curvature="0"
         d="m 40.000035,1121.5197 c 3.865989,0 6.999965,-3.134 6.999965,-7.0001 0,-3.866 -3.133976,-6.9999 -6.999965,-6.9999 -3.865969,0 -7.000035,3.1339 -7.000035,6.9999 0,3.8661 3.134066,7.0001 7.000035,7.0001"
         style="fill:#febd2e;fill-opacity:1;fill-rule:evenodd;stroke:none;stroke-width:0.01789937"
         id="path16-7" />
      <circle
         r="2.6666667"
         cy="1114.5197"
         cx="40"
         id="path4549-6"
         style="opacity:1;fill:#a16115;fill-opacity:1;stroke:#000000;stroke-width:0.2;stroke-miterlimit:4;stroke-dasharray:none;stroke-opacity:0.19607843" />
    </g>
    <g
       id="4-4"
       inkscape:label="#g3842"
       transform="translate(134.4,-3.1999519)" />
    <g
       id="inactive-center">
      <rect
         y="1106.6184"
         x="48.098766"
         height="15.802469"
         width="15.802468"
         id="rect4584-7"
         style="opacity:0;fill:#a8bb15;fill-opacity:1;stroke:#000000;stroke-width:0.19753087;stroke-miterlimit:4;stroke-dasharray:none;stroke-opacity:0.19607843" />
      <path
         inkscape:connector-curvature="0"
         d="m 55.999996,1121.5197 c 3.866059,0 7.000004,-3.134 7.000004,-7.0001 0,-3.8659 -3.133945,-6.9999 -7.000004,-6.9999 -3.865978,0 -6.999996,3.134 -6.999996,6.9999 0,3.8661 3.134018,7.0001 6.999996,7.0001"
         style="fill:#d1d1d1;fill-opacity:1;fill-rule:evenodd;stroke:none;stroke-width:0.016377"
         id="path14-2-7" />
      <path
         inkscape:connector-curvature="0"
         d="m 55.99997,1120.5197 c 3.313765,0 6.00003,-2.6862 6.00003,-6 0,-3.3137 -2.686265,-6 -6.00003,-6 -3.313689,0 -5.99997,2.6863 -5.99997,6 0,3.3138 2.686281,6 5.99997,6"
         style="fill:#dcdcdc;fill-opacity:1;fill-rule:evenodd;stroke:none;stroke-width:0.01534231"
         id="path16-3-6" />
    </g>
    <g
       id="4-4-1"
       inkscape:label="#g3842"
       transform="translate(150.4,-3.1999519)" />
    <g
       id="deactivated-center">
      <rect
         y="1106.6184"
         x="64.098763"
         height="15.802469"
         width="15.802468"
         id="rect4584-5"
         style="opacity:0;fill:#a8bb15;fill-opacity:1;stroke:#000000;stroke-width:0.19753087;stroke-miterlimit:4;stroke-dasharray:none;stroke-opacity:0.19607843" />
      <path
         inkscape:connector-curvature="0"
         d="m 71.999996,1121.5197 c 3.866059,0 7.000004,-3.134 7.000004,-7.0001 0,-3.8659 -3.133945,-6.9999 -7.000004,-6.9999 -3.865978,0 -6.999996,3.134 -6.999996,6.9999 0,3.8661 3.134018,7.0001 6.999996,7.0001"
         style="fill:#d1d1d1;fill-opacity:1;fill-rule:evenodd;stroke:none;stroke-width:0.016377"
         id="path14-2-7-5" />
      <path
         inkscape:connector-curvature="0"
         d="m 71.99997,1120.5197 c 3.313765,0 6.00003,-2.6862 6.00003,-6 0,-3.3137 -2.686265,-6 -6.00003,-6 -3.313689,0 -5.99997,2.6863 -5.99997,6 0,3.3138 2.686281,6 5.99997,6"
         style="fill:#dcdcdc;fill-opacity:1;fill-rule:evenodd;stroke:none;stroke-width:0.01534231"
         id="path16-3-6-9" />
    </g>
  </g>
</svg>
